{
    "name": "yenmoc@uniui.editor",
    "references": [
        "GUID:bcffa1723d92e3840b522686143c5c88",
        "GUID:6055be8ebefd69e48b49212b09b47b2f",
        "GUID:a10c63f57d45e6f44ba33b878c879ae2"
    ],
    "includePlatforms": [
        "Editor"
    ],
    "excludePlatforms": [],
    "allowUnsafeCode": false,
    "overrideReferences": false,
    "precompiledReferences": [],
    "autoReferenced": true,
    "defineConstraints": [],
    "versionDefines": [],
    "noEngineReferences": false
}